{"description":"Documents matching '\"Bears Ears\"'","count":110,"total_pages":22,"next_page_url":"https://www.federalregister.gov/api/v1/documents?conditions%5Bterm%5D=%22Bears+Ears%22&format=json&order=newest&page=2&per_page=5","results":[{"title":"Re-Establishment of the Hunting and Shooting Sports Conservation and Access Council; Request for Nominations","type":"Notice","abstract":"The U.S. Department of the Interior (DOI) is re-establishing and seeking member nominations to the Hunting and Shooting Sports Conservation and Access Council (Council). The Council replaces and changes the name of the previous Hunting and Wildlife Conservation Council. The Secretary of the Interior (Secretary), after consultation with the General Services Administration, is re-establishing the Council charter for 2 years. The Council will provide recommendations to the Federal Government, through the Secretary and the Secretary of Agriculture, regarding the establishment and implementation of existing and proposed policies and authorities with regard to wildlife and habitat conservation endeavors that benefit wildlife resources; encourage partnership among the public, sporting conservation organizations, and Federal, State, Tribal, and Territorial governments; benefit hunting and the shooting sports; and increase public access to hunting and the shooting sports.","document_number":"2026-07755","html_url":"https://www.federalregister.gov/documents/2026/04/21/2026-07755/re-establishment-of-the-hunting-and-shooting-sports-conservation-and-access-council-request-for","pdf_url":"https://www.govinfo.gov/content/pkg/FR-2026-04-21/pdf/2026-07755.pdf","public_inspection_pdf_url":"https://public-inspection.federalregister.gov/2026-07755.pdf?1776689116","publication_date":"2026-04-21","agencies":[{"raw_name":"DEPARTMENT OF THE INTERIOR","name":"Interior Department","id":253,"url":"https://www.federalregister.gov/agencies/interior-department","json_url":"https://www.federalregister.gov/api/v1/agencies/253","parent_id":null,"slug":"interior-department"},{"raw_name":"Fish and Wildlife Service","name":"Fish and Wildlife Service","id":197,"url":"https://www.federalregister.gov/agencies/fish-and-wildlife-service","json_url":"https://www.federalregister.gov/api/v1/agencies/197","parent_id":253,"slug":"fish-and-wildlife-service"}],"excerpts":"Landslides \n Alaska Resource Advisory Council \n Aquatic Nuisance Species Task Force \n Arizona Resource Advisory Council \n Avi Kwa Ame National Monument Advisory Committee \n Baaj Nwaavjo I'tah Kukveni-Ancestral Footprints of the Grand Canyon National Monument Advisory Committee \n <span class=\"match\">Bears Ears</span> National Monument Advisory Committee \n Boston Harbor Islands National Recreation Area Advisory Council \n Bristol Bay Subsistence Regional Advisory Council \n \n Bureau of Indian Affairs Advisory Board for Exceptional Children\n \n \n California Desert District Advisory Council"},{"title":"Newspapers Used for Publication of Legal Notices by the Rocky Mountain Region: Colorado, Kansas, Nebraska, and Parts of South Dakota and Wyoming","type":"Notice","abstract":"This notice lists the newspapers that will be used by the ranger districts, national forests and grasslands, and regional office of the Rocky Mountain Region to publish legal notices. The intended effect of this action is to inform interested members of the public which newspapers the Forest Service will use to publish notices of proposed actions and notices of decision. This will provide the public with constructive notice of Forest Service proposals and decisions, provide information on the procedures to comment, object or appeal, and establish the date that the Forest Service will use to determine if comments or objections were timely.","document_number":"2025-22068","html_url":"https://www.federalregister.gov/documents/2025/12/05/2025-22068/newspapers-used-for-publication-of-legal-notices-by-the-rocky-mountain-region-colorado-kansas","pdf_url":"https://www.govinfo.gov/content/pkg/FR-2025-12-05/pdf/2025-22068.pdf","public_inspection_pdf_url":"https://public-inspection.federalregister.gov/2025-22068.pdf?1764855926","publication_date":"2025-12-05","agencies":[{"raw_name":"DEPARTMENT OF AGRICULTURE","name":"Agriculture Department","id":12,"url":"https://www.federalregister.gov/agencies/agriculture-department","json_url":"https://www.federalregister.gov/api/v1/agencies/12","parent_id":null,"slug":"agriculture-department"},{"raw_name":"Forest Service","name":"Forest Service","id":209,"url":"https://www.federalregister.gov/agencies/forest-service","json_url":"https://www.federalregister.gov/api/v1/agencies/209","parent_id":12,"slug":"forest-service"}],"excerpts":"Grassland \n \n Forest Supervisor decisions: \n Laramie Boomerang \n \n \n Laramie District Ranger decisions: \n Laramie Boomerang \n \n \n Douglas District Ranger decisions: \n Casper Star-Tribune \n \n \n Brush Creek-Hayden District Ranger decisions: \n Rawlins Daily Times \n \n \n Hahns Peak-<span class=\"match\">Bears Ears</span> District Ranger decisions: \n Steamboat Pilot &amp; Today \n \n \n Yampa District Ranger decisions: \n Steamboat Pilot &amp; Today \n \n \n Parks District Ranger decisions: \n Jackson County Star \n \n Nebraska National Forests and Grasslands \n \n Forest Supervisor decisions: \n The"},{"title":"Continuance of Certain Federal Advisory Committees","type":"Presidential Document","abstract":null,"document_number":"2025-19485","html_url":"https://www.federalregister.gov/documents/2025/10/06/2025-19485/continuance-of-certain-federal-advisory-committees","pdf_url":"https://www.govinfo.gov/content/pkg/FR-2025-10-06/pdf/2025-19485.pdf","public_inspection_pdf_url":"https://public-inspection.federalregister.gov/2025-19485.pdf?1759504513","publication_date":"2025-10-06","agencies":[{"raw_name":"EXECUTIVE OFFICE OF THE PRESIDENT","name":"Executive Office of the President","id":538,"url":"https://www.federalregister.gov/agencies/executive-office-of-the-president","json_url":"https://www.federalregister.gov/api/v1/agencies/538","parent_id":null,"slug":"executive-office-of-the-president"}],"excerpts":"Interagency Task Force on Veterans Small Business Development; Executive Order 13540 (Small Business Administration). \n (k) State, Local, Tribal, and Private Sector (SLTPS) Policy Advisory Committee; Executive Order 13549 (National Archives and Records Administration). \n (l) <span class=\"match\">Bears Ears</span> National Monument Advisory Committee; Proclamation 9558 of December 28, 2016, as amended (Department of the Interior). \n (m) Gold Butte National Monument Advisory Committee; Proclamation 9559 of December 28, 2016 (Department of the Interior). \n (n) Avi Kwa Ame National"},{"title":"Records of Decision and Approved Resource Management Plan for Bears Ears National Monument and Approval of the Amendment to the Manti-La Sal National Forest Land and Resource Management Plan in Utah","type":"Notice","abstract":"The Bureau of Land Management (BLM), and U.S. Department of Agriculture, Forest Service (USDA Forest Service) (jointly \"the Agencies\") announce the availability of the Records of Decision (ROD) for the Approved Resource Management Plan (RMP) for BLM-administered portions of the Bears Ears National Monument (BENM) and a ROD for the Approval of the Amendment to the 1986 Manti-La Sal National Forest Land and Resource Management Plan (LRMP) that adopts the Approved RMP for USDA Forest Service-administered portions of BENM located in southeastern Utah. The Department of the Interior Principal Deputy Assistant Secretary for Land and Minerals Management signed the BLM ROD, which constitutes the final decision of the BLM and makes the Approved RMP effective immediately on BLM-administered lands. The Manti-La Sal National Forest Supervisor signed the USDA Forest Service ROD approving an amendment to the LRMP to adopt the Approved RMP. The amendment to the LRMP will become effective 30 days after the publication of this notice in the Federal Register.","document_number":"2025-00863","html_url":"https://www.federalregister.gov/documents/2025/01/16/2025-00863/records-of-decision-and-approved-resource-management-plan-for-bears-ears-national-monument-and","pdf_url":"https://www.govinfo.gov/content/pkg/FR-2025-01-16/pdf/2025-00863.pdf","public_inspection_pdf_url":"https://public-inspection.federalregister.gov/2025-00863.pdf?1736948731","publication_date":"2025-01-16","agencies":[{"raw_name":"DEPARTMENT OF THE INTERIOR","name":"Interior Department","id":253,"url":"https://www.federalregister.gov/agencies/interior-department","json_url":"https://www.federalregister.gov/api/v1/agencies/253","parent_id":null,"slug":"interior-department"},{"raw_name":"Bureau of Land Management","name":"Land Management Bureau","id":275,"url":"https://www.federalregister.gov/agencies/land-management-bureau","json_url":"https://www.federalregister.gov/api/v1/agencies/275","parent_id":253,"slug":"land-management-bureau"},{"raw_name":"DEPARTMENT OF AGRICULTURE","name":"Agriculture Department","id":12,"url":"https://www.federalregister.gov/agencies/agriculture-department","json_url":"https://www.federalregister.gov/api/v1/agencies/12","parent_id":null,"slug":"agriculture-department"},{"raw_name":"Forest Service","name":"Forest Service","id":209,"url":"https://www.federalregister.gov/agencies/forest-service","json_url":"https://www.federalregister.gov/api/v1/agencies/209","parent_id":12,"slug":"forest-service"}],"excerpts":"Bureau of Land Management (BLM), and U.S. Department of Agriculture, Forest Service (USDA Forest Service) (jointly “the Agencies”) announce the availability of the Records of Decision (ROD) for the Approved Resource Management Plan (RMP) for BLM-administered portions of the <span class=\"match\">Bears Ears</span> National Monument (BENM) and a ROD for the Approval of the Amendment to the 1986 Manti-La Sal National Forest Land and Resource Management Plan (LRMP) that adopts the Approved RMP for USDA Forest Service-administered portions of BENM located in southeastern Utah. The Department"},{"title":"Notice of Availability of the Approved Resource Management Plan Amendments and Record of Decision for Utility-Scale Solar Energy Development","type":"Notice","abstract":"The Bureau of Land Management (BLM) announces the availability of a Record of Decision (ROD) for Approved Resource Management Plan (RMP) Amendments that update the public lands management framework to support utility-scale solar energy development and improve protection of important and sensitive resources.","document_number":"2024-30953","html_url":"https://www.federalregister.gov/documents/2024/12/27/2024-30953/notice-of-availability-of-the-approved-resource-management-plan-amendments-and-record-of-decision","pdf_url":"https://www.govinfo.gov/content/pkg/FR-2024-12-27/pdf/2024-30953.pdf","public_inspection_pdf_url":"https://public-inspection.federalregister.gov/2024-30953.pdf?1735220730","publication_date":"2024-12-27","agencies":[{"raw_name":"DEPARTMENT OF THE INTERIOR","name":"Interior Department","id":253,"url":"https://www.federalregister.gov/agencies/interior-department","json_url":"https://www.federalregister.gov/api/v1/agencies/253","parent_id":null,"slug":"interior-department"},{"raw_name":"Bureau of Land Management","name":"Land Management Bureau","id":275,"url":"https://www.federalregister.gov/agencies/land-management-bureau","json_url":"https://www.federalregister.gov/api/v1/agencies/275","parent_id":253,"slug":"land-management-bureau"}],"excerpts":"District RMP (1987) \n • Steens Mountain Cooperative Management and Protection Area RMP (2005) \n • Three Rivers RMP (1992) \n • Two Rivers RMP (1986) \n • Upper Deschutes RMP (2005) \n • Upper Klamath Basin and Wood River Wetland RMP (1996) \n • West Eugene Wetlands RMP (2015) \n • <span class=\"match\">Bears Ears</span> NM—RMPs for the Indian Creek and Shash Jaa Units (2020) \n • Beaver Dam Wash NCA RMP (2016) \n • Box Elder RMP (1986) \n • Cedar Beaver Garfield Antimony RMP (1986) \n • Grand Staircase-Escalante NM RMP (2020) \n • House Range RMP (1987) \n • Isolated Tract Planning Analysis"}]}